<svg width="188" height="44" viewBox="0 0 188 44" fill="none" xmlns="http://www.w3.org/2000/svg">
<rect width="44" height="44" rx="22" fill="#3F51B5"/>
<path fill-rule="evenodd" clip-rule="evenodd" d="M11 19.7903H14.4321V18.4223L20.284 13.5317V22.7955L22.0017 24.2308L23.716 22.7955V13.5317L29.5679 18.4223V19.7903H33V16.6929L21.9983 7.5L11 16.6929V19.7903Z" fill="white"/>
<path fill-rule="evenodd" clip-rule="evenodd" d="M11 27.3228V24.2308H14.4321V25.5964L21.9983 31.9114L29.5679 25.5964V24.2308H33V27.3228L21.9983 36.5L11 27.3228Z" fill="white"/>
<path d="M63.7539 12.9375V30H60.8359V12.9375H63.7539ZM69.1094 12.9375V15.2812H55.5273V12.9375H69.1094ZM73.0703 19.7344V30H70.2461V17.3203H72.9414L73.0703 19.7344ZM76.9492 17.2383L76.9258 19.8633C76.7539 19.832 76.5664 19.8086 76.3633 19.793C76.168 19.7773 75.9727 19.7695 75.7773 19.7695C75.293 19.7695 74.8672 19.8398 74.5 19.9805C74.1328 20.1133 73.8242 20.3086 73.5742 20.5664C73.332 20.8164 73.1445 21.1211 73.0117 21.4805C72.8789 21.8398 72.8008 22.2422 72.7773 22.6875L72.1328 22.7344C72.1328 21.9375 72.2109 21.1992 72.3672 20.5195C72.5234 19.8398 72.7578 19.2422 73.0703 18.7266C73.3906 18.2109 73.7891 17.8086 74.2656 17.5195C74.75 17.2305 75.3086 17.0859 75.9414 17.0859C76.1133 17.0859 76.2969 17.1016 76.4922 17.1328C76.6953 17.1641 76.8477 17.1992 76.9492 17.2383ZM85.4453 27.457V21.4102C85.4453 20.957 85.3633 20.5664 85.1992 20.2383C85.0352 19.9102 84.7852 19.6562 84.4492 19.4766C84.1211 19.2969 83.707 19.207 83.207 19.207C82.7461 19.207 82.3477 19.2852 82.0117 19.4414C81.6758 19.5977 81.4141 19.8086 81.2266 20.0742C81.0391 20.3398 80.9453 20.6406 80.9453 20.9766H78.1328C78.1328 20.4766 78.2539 19.9922 78.4961 19.5234C78.7383 19.0547 79.0898 18.6367 79.5508 18.2695C80.0117 17.9023 80.5625 17.6133 81.2031 17.4023C81.8438 17.1914 82.5625 17.0859 83.3594 17.0859C84.3125 17.0859 85.1562 17.2461 85.8906 17.5664C86.6328 17.8867 87.2148 18.3711 87.6367 19.0195C88.0664 19.6602 88.2812 20.4648 88.2812 21.4336V27.0703C88.2812 27.6484 88.3203 28.168 88.3984 28.6289C88.4844 29.082 88.6055 29.4766 88.7617 29.8125V30H85.8672C85.7344 29.6953 85.6289 29.3086 85.5508 28.8398C85.4805 28.3633 85.4453 27.9023 85.4453 27.457ZM85.8555 22.2891L85.8789 24.0352H83.8516C83.3281 24.0352 82.8672 24.0859 82.4688 24.1875C82.0703 24.2812 81.7383 24.4219 81.4727 24.6094C81.207 24.7969 81.0078 25.0234 80.875 25.2891C80.7422 25.5547 80.6758 25.8555 80.6758 26.1914C80.6758 26.5273 80.7539 26.8359 80.9102 27.1172C81.0664 27.3906 81.293 27.6055 81.5898 27.7617C81.8945 27.918 82.2617 27.9961 82.6914 27.9961C83.2695 27.9961 83.7734 27.8789 84.2031 27.6445C84.6406 27.4023 84.9844 27.1094 85.2344 26.7656C85.4844 26.4141 85.6172 26.082 85.6328 25.7695L86.5469 27.0234C86.4531 27.3438 86.293 27.6875 86.0664 28.0547C85.8398 28.4219 85.543 28.7734 85.1758 29.1094C84.8164 29.4375 84.3828 29.707 83.875 29.918C83.375 30.1289 82.7969 30.2344 82.1406 30.2344C81.3125 30.2344 80.5742 30.0703 79.9258 29.7422C79.2773 29.4062 78.7695 28.957 78.4023 28.3945C78.0352 27.8242 77.8516 27.1797 77.8516 26.4609C77.8516 25.7891 77.9766 25.1953 78.2266 24.6797C78.4844 24.1562 78.8594 23.7188 79.3516 23.3672C79.8516 23.0156 80.4609 22.75 81.1797 22.5703C81.8984 22.3828 82.7188 22.2891 83.6406 22.2891H85.8555ZM98.9688 27.375V12H101.805V30H99.2383L98.9688 27.375ZM90.7188 23.8008V23.5547C90.7188 22.5938 90.832 21.7188 91.0586 20.9297C91.2852 20.1328 91.6133 19.4492 92.043 18.8789C92.4727 18.3008 92.9961 17.8594 93.6133 17.5547C94.2305 17.2422 94.9258 17.0859 95.6992 17.0859C96.4648 17.0859 97.1367 17.2344 97.7148 17.5312C98.293 17.8281 98.7852 18.2539 99.1914 18.8086C99.5977 19.3555 99.9219 20.0117 100.164 20.7773C100.406 21.5352 100.578 22.3789 100.68 23.3086V24.0938C100.578 25 100.406 25.8281 100.164 26.5781C99.9219 27.3281 99.5977 27.9766 99.1914 28.5234C98.7852 29.0703 98.2891 29.4922 97.7031 29.7891C97.125 30.0859 96.4492 30.2344 95.6758 30.2344C94.9102 30.2344 94.2188 30.0742 93.6016 29.7539C92.9922 29.4336 92.4727 28.9844 92.043 28.4062C91.6133 27.8281 91.2852 27.1484 91.0586 26.3672C90.832 25.5781 90.7188 24.7227 90.7188 23.8008ZM93.543 23.5547V23.8008C93.543 24.3789 93.5938 24.918 93.6953 25.418C93.8047 25.918 93.9727 26.3594 94.1992 26.7422C94.4258 27.1172 94.7188 27.4141 95.0781 27.6328C95.4453 27.8438 95.8828 27.9492 96.3906 27.9492C97.0312 27.9492 97.5586 27.8086 97.9727 27.5273C98.3867 27.2461 98.7109 26.8672 98.9453 26.3906C99.1875 25.9062 99.3516 25.3672 99.4375 24.7734V22.6523C99.3906 22.1914 99.293 21.7617 99.1445 21.3633C99.0039 20.9648 98.8125 20.6172 98.5703 20.3203C98.3281 20.0156 98.0273 19.7812 97.668 19.6172C97.3164 19.4453 96.8984 19.3594 96.4141 19.3594C95.8984 19.3594 95.4609 19.4688 95.1016 19.6875C94.7422 19.9062 94.4453 20.207 94.2109 20.5898C93.9844 20.9727 93.8164 21.418 93.707 21.9258C93.5977 22.4336 93.543 22.9766 93.543 23.5547ZM110.348 30.2344C109.41 30.2344 108.562 30.082 107.805 29.7773C107.055 29.4648 106.414 29.0312 105.883 28.4766C105.359 27.9219 104.957 27.2695 104.676 26.5195C104.395 25.7695 104.254 24.9609 104.254 24.0938V23.625C104.254 22.6328 104.398 21.7344 104.688 20.9297C104.977 20.125 105.379 19.4375 105.895 18.8672C106.41 18.2891 107.02 17.8477 107.723 17.543C108.426 17.2383 109.188 17.0859 110.008 17.0859C110.914 17.0859 111.707 17.2383 112.387 17.543C113.066 17.8477 113.629 18.2773 114.074 18.832C114.527 19.3789 114.863 20.0312 115.082 20.7891C115.309 21.5469 115.422 22.3828 115.422 23.2969V24.5039H105.625V22.4766H112.633V22.2539C112.617 21.7461 112.516 21.2695 112.328 20.8242C112.148 20.3789 111.871 20.0195 111.496 19.7461C111.121 19.4727 110.621 19.3359 109.996 19.3359C109.527 19.3359 109.109 19.4375 108.742 19.6406C108.383 19.8359 108.082 20.1211 107.84 20.4961C107.598 20.8711 107.41 21.3242 107.277 21.8555C107.152 22.3789 107.09 22.9688 107.09 23.625V24.0938C107.09 24.6484 107.164 25.1641 107.312 25.6406C107.469 26.1094 107.695 26.5195 107.992 26.8711C108.289 27.2227 108.648 27.5 109.07 27.7031C109.492 27.8984 109.973 27.9961 110.512 27.9961C111.191 27.9961 111.797 27.8594 112.328 27.5859C112.859 27.3125 113.32 26.9258 113.711 26.4258L115.199 27.8672C114.926 28.2656 114.57 28.6484 114.133 29.0156C113.695 29.375 113.16 29.668 112.527 29.8945C111.902 30.1211 111.176 30.2344 110.348 30.2344ZM127.48 12.9375H130.41V24.3398C130.41 25.6367 130.129 26.7227 129.566 27.5977C129.004 28.4727 128.238 29.1328 127.27 29.5781C126.309 30.0156 125.234 30.2344 124.047 30.2344C122.82 30.2344 121.727 30.0156 120.766 29.5781C119.805 29.1328 119.047 28.4727 118.492 27.5977C117.945 26.7227 117.672 25.6367 117.672 24.3398V12.9375H120.602V24.3398C120.602 25.1602 120.742 25.8359 121.023 26.3672C121.305 26.8906 121.703 27.2773 122.219 27.5273C122.734 27.7773 123.344 27.9023 124.047 27.9023C124.75 27.9023 125.355 27.7773 125.863 27.5273C126.379 27.2773 126.777 26.8906 127.059 26.3672C127.34 25.8359 127.48 25.1602 127.48 24.3398V12.9375ZM136.164 19.7578V34.875H133.34V17.3203H135.941L136.164 19.7578ZM144.426 23.543V23.7891C144.426 24.7109 144.316 25.5664 144.098 26.3555C143.887 27.1367 143.57 27.8203 143.148 28.4062C142.734 28.9844 142.223 29.4336 141.613 29.7539C141.004 30.0742 140.301 30.2344 139.504 30.2344C138.715 30.2344 138.023 30.0898 137.43 29.8008C136.844 29.5039 136.348 29.0859 135.941 28.5469C135.535 28.0078 135.207 27.375 134.957 26.6484C134.715 25.9141 134.543 25.1094 134.441 24.2344V23.2852C134.543 22.3555 134.715 21.5117 134.957 20.7539C135.207 19.9961 135.535 19.3438 135.941 18.7969C136.348 18.25 136.844 17.8281 137.43 17.5312C138.016 17.2344 138.699 17.0859 139.48 17.0859C140.277 17.0859 140.984 17.2422 141.602 17.5547C142.219 17.8594 142.738 18.2969 143.16 18.8672C143.582 19.4297 143.898 20.1094 144.109 20.9062C144.32 21.6953 144.426 22.5742 144.426 23.543ZM141.602 23.7891V23.543C141.602 22.957 141.547 22.4141 141.438 21.9141C141.328 21.4062 141.156 20.9609 140.922 20.5781C140.688 20.1953 140.387 19.8984 140.02 19.6875C139.66 19.4688 139.227 19.3594 138.719 19.3594C138.219 19.3594 137.789 19.4453 137.43 19.6172C137.07 19.7812 136.77 20.0117 136.527 20.3086C136.285 20.6055 136.098 20.9531 135.965 21.3516C135.832 21.7422 135.738 22.168 135.684 22.6289V24.9023C135.777 25.4648 135.938 25.9805 136.164 26.4492C136.391 26.918 136.711 27.293 137.125 27.5742C137.547 27.8477 138.086 27.9844 138.742 27.9844C139.25 27.9844 139.684 27.875 140.043 27.6562C140.402 27.4375 140.695 27.1367 140.922 26.7539C141.156 26.3633 141.328 25.9141 141.438 25.4062C141.547 24.8984 141.602 24.3594 141.602 23.7891Z" fill="black" fill-opacity="0.87"/>
<path d="M146.945 28.5938C146.945 28.1562 147.094 27.7891 147.391 27.4922C147.688 27.1875 148.09 27.0352 148.598 27.0352C149.113 27.0352 149.516 27.1875 149.805 27.4922C150.102 27.7891 150.25 28.1562 150.25 28.5938C150.25 29.0312 150.102 29.3984 149.805 29.6953C149.516 29.9922 149.113 30.1406 148.598 30.1406C148.09 30.1406 147.688 29.9922 147.391 29.6953C147.094 29.3984 146.945 29.0312 146.945 28.5938ZM156.344 19.7578V34.875H153.52V17.3203H156.121L156.344 19.7578ZM164.605 23.543V23.7891C164.605 24.7109 164.496 25.5664 164.277 26.3555C164.066 27.1367 163.75 27.8203 163.328 28.4062C162.914 28.9844 162.402 29.4336 161.793 29.7539C161.184 30.0742 160.48 30.2344 159.684 30.2344C158.895 30.2344 158.203 30.0898 157.609 29.8008C157.023 29.5039 156.527 29.0859 156.121 28.5469C155.715 28.0078 155.387 27.375 155.137 26.6484C154.895 25.9141 154.723 25.1094 154.621 24.2344V23.2852C154.723 22.3555 154.895 21.5117 155.137 20.7539C155.387 19.9961 155.715 19.3438 156.121 18.7969C156.527 18.25 157.023 17.8281 157.609 17.5312C158.195 17.2344 158.879 17.0859 159.66 17.0859C160.457 17.0859 161.164 17.2422 161.781 17.5547C162.398 17.8594 162.918 18.2969 163.34 18.8672C163.762 19.4297 164.078 20.1094 164.289 20.9062C164.5 21.6953 164.605 22.5742 164.605 23.543ZM161.781 23.7891V23.543C161.781 22.957 161.727 22.4141 161.617 21.9141C161.508 21.4062 161.336 20.9609 161.102 20.5781C160.867 20.1953 160.566 19.8984 160.199 19.6875C159.84 19.4688 159.406 19.3594 158.898 19.3594C158.398 19.3594 157.969 19.4453 157.609 19.6172C157.25 19.7812 156.949 20.0117 156.707 20.3086C156.465 20.6055 156.277 20.9531 156.145 21.3516C156.012 21.7422 155.918 22.168 155.863 22.6289V24.9023C155.957 25.4648 156.117 25.9805 156.344 26.4492C156.57 26.918 156.891 27.293 157.305 27.5742C157.727 27.8477 158.266 27.9844 158.922 27.9844C159.43 27.9844 159.863 27.875 160.223 27.6562C160.582 27.4375 160.875 27.1367 161.102 26.7539C161.336 26.3633 161.508 25.9141 161.617 25.4062C161.727 24.8984 161.781 24.3594 161.781 23.7891ZM169.844 19.7344V30H167.02V17.3203H169.715L169.844 19.7344ZM173.723 17.2383L173.699 19.8633C173.527 19.832 173.34 19.8086 173.137 19.793C172.941 19.7773 172.746 19.7695 172.551 19.7695C172.066 19.7695 171.641 19.8398 171.273 19.9805C170.906 20.1133 170.598 20.3086 170.348 20.5664C170.105 20.8164 169.918 21.1211 169.785 21.4805C169.652 21.8398 169.574 22.2422 169.551 22.6875L168.906 22.7344C168.906 21.9375 168.984 21.1992 169.141 20.5195C169.297 19.8398 169.531 19.2422 169.844 18.7266C170.164 18.2109 170.562 17.8086 171.039 17.5195C171.523 17.2305 172.082 17.0859 172.715 17.0859C172.887 17.0859 173.07 17.1016 173.266 17.1328C173.469 17.1641 173.621 17.1992 173.723 17.2383ZM174.648 23.8008V23.5312C174.648 22.6172 174.781 21.7695 175.047 20.9883C175.312 20.1992 175.695 19.5156 176.195 18.9375C176.703 18.3516 177.32 17.8984 178.047 17.5781C178.781 17.25 179.609 17.0859 180.531 17.0859C181.461 17.0859 182.289 17.25 183.016 17.5781C183.75 17.8984 184.371 18.3516 184.879 18.9375C185.387 19.5156 185.773 20.1992 186.039 20.9883C186.305 21.7695 186.438 22.6172 186.438 23.5312V23.8008C186.438 24.7148 186.305 25.5625 186.039 26.3438C185.773 27.125 185.387 27.8086 184.879 28.3945C184.371 28.9727 183.754 29.4258 183.027 29.7539C182.301 30.0742 181.477 30.2344 180.555 30.2344C179.625 30.2344 178.793 30.0742 178.059 29.7539C177.332 29.4258 176.715 28.9727 176.207 28.3945C175.699 27.8086 175.312 27.125 175.047 26.3438C174.781 25.5625 174.648 24.7148 174.648 23.8008ZM177.473 23.5312V23.8008C177.473 24.3711 177.531 24.9102 177.648 25.418C177.766 25.9258 177.949 26.3711 178.199 26.7539C178.449 27.1367 178.77 27.4375 179.16 27.6562C179.551 27.875 180.016 27.9844 180.555 27.9844C181.078 27.9844 181.531 27.875 181.914 27.6562C182.305 27.4375 182.625 27.1367 182.875 26.7539C183.125 26.3711 183.309 25.9258 183.426 25.418C183.551 24.9102 183.613 24.3711 183.613 23.8008V23.5312C183.613 22.9688 183.551 22.4375 183.426 21.9375C183.309 21.4297 183.121 20.9805 182.863 20.5898C182.613 20.1992 182.293 19.8945 181.902 19.6758C181.52 19.4492 181.062 19.3359 180.531 19.3359C180 19.3359 179.539 19.4492 179.148 19.6758C178.766 19.8945 178.449 20.1992 178.199 20.5898C177.949 20.9805 177.766 21.4297 177.648 21.9375C177.531 22.4375 177.473 22.9688 177.473 23.5312Z" fill="#3F51B5"/>
</svg>
